{"current_page":1,"data":[{"id":1,"nickname":"\u978f\u7f8e\u4fe1","avatar":"https:\/\/fanscome.oss-cn-shenzhen.aliyuncs.com\/upload\/fanscome\/2018-01-13\/wAwUMKMg3OuLAsxbwNoW0JljpaWHus26h83oJMO7.jpeg","openid":"odh7zsgI75iT8FRh0fGlSojc9PWM","mobile":"+886-933-377-791","with_info":true,"created_at":"2017-12-19 21:49:07","updated_at":"2018-04-05 10:40:12","experienced":1,"inviter_id":8},{"id":2,"nickname":"\u88f4\u8a69\u9298","avatar":"https:\/\/lorempixel.com\/640\/480\/?82758","openid":"bgnzU2I6YSVyjyp1","mobile":"(05)886-9752","with_info":false,"created_at":"2017-12-19 21:49:07","updated_at":"2017-12-19 21:49:07","experienced":0,"inviter_id":1},{"id":3,"nickname":"\u90c1\u5fc3","avatar":"https:\/\/lorempixel.com\/640\/480\/?60946","openid":"bxyc4dPnkAWOn67Y","mobile":"(005)382706","with_info":false,"created_at":"2017-12-19 21:49:07","updated_at":"2017-12-19 21:49:07","experienced":0,"inviter_id":1},{"id":4,"nickname":"\u66fe\u5a01\u5fc3","avatar":"https:\/\/lorempixel.com\/640\/480\/?93552","openid":"IwUOfCDDRFxKCWQs","mobile":"(005)289-785","with_info":false,"created_at":"2017-12-19 21:49:07","updated_at":"2017-12-19 21:49:07","experienced":0,"inviter_id":1},{"id":5,"nickname":"\u570b\u5982","avatar":"https:\/\/lorempixel.com\/640\/480\/?72225","openid":"OSpdkYMBh2GyeRGT","mobile":"(023)164-233","with_info":false,"created_at":"2017-12-19 21:49:07","updated_at":"2017-12-19 21:49:07","experienced":0,"inviter_id":0},{"id":6,"nickname":"\u90dc\u83ef","avatar":"https:\/\/lorempixel.com\/640\/480\/?79095","openid":"9s5boChEi7S1P1ma","mobile":"(02)5225-4585","with_info":false,"created_at":"2017-12-19 21:49:07","updated_at":"2017-12-19 21:49:07","experienced":0,"inviter_id":0},{"id":7,"nickname":"\u9eb4\u5b87","avatar":"https:\/\/lorempixel.com\/640\/480\/?36793","openid":"sYeubhOQbFNeAdb0","mobile":"(02)0652-9671","with_info":false,"created_at":"2017-12-19 21:49:07","updated_at":"2017-12-19 21:49:07","experienced":0,"inviter_id":0},{"id":8,"nickname":"\u83ab\u627f","avatar":"https:\/\/lorempixel.com\/640\/480\/?91090","openid":"GOG5sHfpgvK6k2tv","mobile":"(053)665932","with_info":false,"created_at":"2017-12-19 21:49:07","updated_at":"2017-12-19 21:49:07","experienced":0,"inviter_id":0},{"id":9,"nickname":"\u66b4\u5b8f\u8a69","avatar":"https:\/\/lorempixel.com\/640\/480\/?13578","openid":"6e9XOLe4ni44taU6","mobile":"(036)675942","with_info":false,"created_at":"2017-12-19 21:49:07","updated_at":"2017-12-19 21:49:07","experienced":0,"inviter_id":0},{"id":10,"nickname":"\u8c9d\u5bb6","avatar":"https:\/\/lorempixel.com\/640\/480\/?20552","openid":"8hn9zBxAWR4z7SPl","mobile":"(02)0227-3589","with_info":false,"created_at":"2017-12-19 21:49:07","updated_at":"2017-12-19 21:49:07","experienced":0,"inviter_id":0},{"id":11,"nickname":"\u4ec7\u8c6a\u7ff0","avatar":"https:\/\/lorempixel.com\/640\/480\/?39404","openid":"pMEgzi8vKfVsRzmf","mobile":"0985968590","with_info":false,"created_at":"2017-12-19 21:49:07","updated_at":"2017-12-19 21:49:07","experienced":0,"inviter_id":0},{"id":12,"nickname":"\u9215\u5100\u73b2","avatar":"https:\/\/lorempixel.com\/640\/480\/?47472","openid":"v19r2A9bQrLIntie","mobile":"(02)9257-8759","with_info":false,"created_at":"2017-12-19 21:49:07","updated_at":"2017-12-19 21:49:07","experienced":0,"inviter_id":0},{"id":13,"nickname":"\u856d\u5b8f","avatar":"https:\/\/lorempixel.com\/640\/480\/?70689","openid":"4Cdsw9dj5hd5dZvp","mobile":"+886-907-302-899","with_info":false,"created_at":"2017-12-19 21:49:07","updated_at":"2017-12-19 21:49:07","experienced":0,"inviter_id":0},{"id":14,"nickname":"\u6649\u5b9c","avatar":"https:\/\/lorempixel.com\/640\/480\/?12781","openid":"zbhMxA2VoAuPLgpB","mobile":"0936-993-052","with_info":false,"created_at":"2017-12-19 21:49:07","updated_at":"2017-12-19 21:49:07","experienced":0,"inviter_id":0},{"id":15,"nickname":"\u81e7\u5ef7","avatar":"https:\/\/lorempixel.com\/640\/480\/?30012","openid":"4vQMG3Jey6BXVbnc","mobile":"(02)61003009","with_info":false,"created_at":"2017-12-19 21:49:07","updated_at":"2017-12-19 21:49:07","experienced":0,"inviter_id":0}],"first_page_url":"http:\/\/192.168.1.200:8888?page=1","from":1,"last_page":4,"last_page_url":"http:\/\/192.168.1.200:8888?page=4","next_page_url":"http:\/\/192.168.1.200:8888?page=2","path":"http:\/\/192.168.1.200:8888","per_page":15,"prev_page_url":null,"to":15,"total":51}